…
The mean of the proportion of “Excellent” responses across locations in NY State decreased in 2006 and then increased a little bit in 2010. The standard deviation of the proportion of “Excellent” responses across locations in NY State showed a decreasing trend from 2002 to 2010.

Compute the average proportion in each response category for each year and state
--------------------------------------------------------------------------------

``` r
brfss_data %>% 
  group_by(year, locationabbr, response) %>% 
  summarize(mean_response_proportion = round(mean(data_value, na.rm = TRUE), digits = 1)) 
```

    ## # A tibble: 2,215 x 4
    ## # Groups:   year, locationabbr [?]
    ##     year locationabbr response  mean_response_proportion
    ##    <int> <chr>        <fct>                        <dbl>
    ##  1  2002 AK           Excellent                     27.9
    ##  2  2002 AK           Fair                           8.6
    ##  3  2002 AK           Good                          23.8
    ##  4  2002 AK           Poor                           5.9
    ##  5  2002 AK           Very good                     33.7
    ##  6  2002 AL           Excellent                     18.5
    ##  7  2002 AL           Fair                          12.1
    ##  8  2002 AL           Good                          32.7
    ##  9  2002 AL           Poor                           5.9
    ## 10  2002 AL           Very good                     30.9
    ## # ... with 2,205 more rows
…
